<?xml version="1.0" encoding="UTF-8" standalone="no" ?>
<!DOCTYPE svg PUBLIC "-//W3C//DTD SVG 1.1//EN" "http://www.w3.org/Graphics/SVG/1.1/DTD/svg11.dtd">
<svg xmlns="http://www.w3.org/2000/svg" xmlns:xlink="http://www.w3.org/1999/xlink" version="1.1" width="500" height="500" viewBox="0 0 500 500" xml:space="preserve">
<desc>Created with Fabric.js 4.6.0</desc>
<defs>
</defs>
<g transform="matrix(17.66 0 0 17.66 254.23 250)" id="89lxZUim-ejEgBgKAXXz0"  >
<path style="stroke: none; stroke-width: 1; stroke-dasharray: none; stroke-linecap: butt; stroke-dashoffset: 0; stroke-linejoin: miter; stroke-miterlimit: 4; fill: rgb(255,255,255); fill-rule: evenodd; opacity: 1;" vector-effect="non-scaling-stroke"  transform=" translate(-8, -8)" d="M 8 15 C 11.865993248815554 15 15 11.865993248815554 15 8 C 15 4.134006751184446 11.865993248815554 1 8 1 C 4.134006751184446 1 1 4.134006751184446 1 8 C 1 11.865993248815554 4.134006751184446 15 8 15 z M 16 8 C 16 12.418277998646348 12.418277998646348 16 8 16 C 3.5817220013536524 16 0 12.418277998646348 0 8 C 0 3.5817220013536524 3.5817220013536524 0 8 0 C 12.418277998646348 0 15.999999999999998 3.5817220013536506 16 7.999999999999998 z" stroke-linecap="round" />
</g>
<g transform="matrix(17.66 0 0 17.66 276.13 236.75)" id="mBVPw4ggL3oHGcUd4cGgZ"  >
<path style="stroke: none; stroke-width: 1; stroke-dasharray: none; stroke-linecap: butt; stroke-dashoffset: 0; stroke-linejoin: miter; stroke-miterlimit: 4; fill: rgb(255,255,255); fill-rule: evenodd; opacity: 1;" vector-effect="non-scaling-stroke"  transform=" translate(-9.24, -7.25)" d="M 7.5 3 C 7.776142374915397 3 8 3.2238576250846034 8 3.5 L 8 8.71 L 11.248000000000001 10.566 C 11.480502154058561 10.706259100624587 11.55856619706647 11.006442893635594 11.423848379662365 11.242199074092781 C 11.289130562258258 11.477955254549967 10.990878164906297 11.563101081641047 10.752 11.434000000000001 L 7.252000000000001 9.434000000000001 C 7.096223469810556 9.345017915138357 7.000057865350132 9.179399374123182 7 9 L 7 3.5 C 7 3.2238576250846034 7.223857625084603 3 7.5 3 z" stroke-linecap="round" />
</g>
</svg>