<?xml version="1.0" encoding="UTF-8" standalone="no" ?>
<!DOCTYPE svg PUBLIC "-//W3C//DTD SVG 1.1//EN" "http://www.w3.org/Graphics/SVG/1.1/DTD/svg11.dtd">
<svg xmlns="http://www.w3.org/2000/svg" xmlns:xlink="http://www.w3.org/1999/xlink" version="1.1" width="500" height="500" viewBox="0 0 500 500" xml:space="preserve">
<desc>Created with Fabric.js 4.6.0</desc>
<defs>
</defs>
<g transform="matrix(17.29 0 0 17.29 254.92 241.63)" id="UnWYxudytwHS0znxqXBMv"  >
<path style="stroke: rgb(255,255,255); stroke-width: 2; stroke-dasharray: none; stroke-linecap: butt; stroke-dashoffset: 0; stroke-linejoin: miter; stroke-miterlimit: 4; fill: rgb(0,0,139); fill-rule: nonzero; opacity: 1;" vector-effect="non-scaling-stroke"  transform=" translate(-8, -8.5)" d="M 5.026 15 C 11.064 15 14.366999999999999 9.997 14.366999999999999 5.666 C 14.366999999999999 5.526000000000001 14.366999999999999 5.384 14.360999999999999 5.244000000000001 C 15.004058953701968 4.778485855315305 15.559060014660169 4.202151623618626 16 3.5420000000000016 C 15.399314308268227 3.8068506228196477 14.762760772476557 3.981405800977448 14.111 4.06 C 14.797533358877967 3.6496378064788506 15.31172349574806 3.003968505377978 15.558 2.2429999999999986 C 14.912987662961537 2.6251240031932337 14.207014505409763 2.893373506757467 13.471 3.0359999999999987 C 12.45367070755772 1.9525542606106405 10.835775978507538 1.6868201092702428 9.525337800655205 2.387937318793098 C 8.214899622802868 3.0890545283159536 7.538188669372617 4.5824601259298365 7.875000000000001 6.030000000000003 C 5.235318121290378 5.8976396444985335 2.7757954489958925 4.65134095330631 1.1079999999999988 2.6010000000000018 C 0.23913895287351272 4.101642063364142 0.68458379797579 6.019067712910486 2.1260000000000003 6.9830000000000005 C 1.6055398452767524 6.965317248398465 1.0965208631254104 6.825559681293655 0.6400000000000001 6.574999999999999 L 0.64 6.62 C 0.6418501348338993 8.181580939073852 1.7418131897158848 9.526444582922721 3.2720000000000007 9.838000000000001 C 2.990262878954306 9.915613871043728 2.6992293829046345 9.954306185547441 2.406999999999999 9.953000000000001 C 2.200983886220871 9.953624666923622 1.9953805185883375 9.9345377093421 1.793 9.896 C 2.223105159636001 11.232849005128514 3.4558863364554337 12.14808954624943 4.860000000000001 12.173000000000002 C 3.6965550714329205 13.086799641810284 2.2594012628811946 13.582406359612312 0.7800000000000002 13.58 C 0.51932075895334 13.581100717295662 0.25882312230906734 13.566072007489261 -8.881784197001252e-16 13.535 C 1.5015147355115297 14.49226415318065 3.245297650360215 15.000549463617048 5.026000000000003 15.000000000000002 z" stroke-linecap="round" />
</g>
</svg>